%YAML 1.1
%TAG !u! tag:unity3d.com,2011:
--- !u!114 &11400000
MonoBehaviour:
  m_ObjectHideFlags: 0
  m_PrefabParentObject: {fileID: 0}
  m_PrefabInternal: {fileID: 0}
  m_GameObject: {fileID: 0}
  m_Enabled: 1
  m_EditorHideFlags: 0
  m_Script: {fileID: 11500000, guid: 5cc71d7d9591d7c41b1445355698d436, type: 3}
  m_Name: TablesDownloadSettings
  m_EditorClassIdentifier: 
  IsParallel: 0
  Settings:
  - IsDownload: 0
    Table: {fileID: 11400000, guid: 7a2bf3936231e8343b5e726b3acd0d76, type: 2}
  - IsDownload: 0
    Table: {fileID: 11400000, guid: 7a2bf3936231e8343b5e726b3acd0d76, type: 2}
  - IsDownload: 0
    Table: {fileID: 11400000, guid: 7a2bf3936231e8343b5e726b3acd0d76, type: 2}
  - IsDownload: 0
    Table: {fileID: 11400000, guid: 7a2bf3936231e8343b5e726b3acd0d76, type: 2}
  - IsDownload: 0
    Table: {fileID: 11400000, guid: 7a2bf3936231e8343b5e726b3acd0d76, type: 2}
